ApplicationMgr    SUCCESS
====================================================================================================================================
====================================================================================================================================
ApplicationMgr       INFO Application Manager Configured successfully
DetectorPersist...   INFO Added successfully Conversion service:XmlCnvSvc
DetectorDataSvc   SUCCESS Detector description database: git:/lhcb.xml
CounterSummarySvc    INFO Wrote xml file summary.xml
LumiSeq              INFO OR Member list: EventAccounting/EventAccount
RndmGenSvc.Engine    INFO Generator engine type:CLHEP::RanluxEngine
RndmGenSvc.Engine    INFO Current Seed:1234567 Luxury:3
RndmGenSvc           INFO Using Random engine:HepRndm::Engine<CLHEP::RanluxEngine>
LumiIntSeq           INFO Member list: LumiIntegrateFSR/IntegrateBeamCrossing
IntegrateBeamCr...   INFO Primary  BXType BeamCrossing
IntegrateBeamCr...   INFO Add      BXType NoBeam
IntegrateBeamCr...   INFO Subtract BXType Beam1
IntegrateBeamCr...   INFO Subtract BXType Beam2
EventPersistenc...   INFO Added successfully Conversion service:RootCnvSvc
ApplicationMgr       INFO Application Manager Initialized successfully
ApplicationMgr       INFO Application Manager Started successfully
FileRecordPersi...   INFO Added successfully Conversion service:FileRecordCnvSvc
EventSelector     SUCCESS Reading Event record 1. Record number within stream 1: 1
ConfigCDBAccessSvc   INFO  opening DBASE/TCK/HltTCK/vXrYpZ/config.cdb in mode ReadOnly
PropertyConfigSvc    INFO  resolved TCK/0x######## to 158005664d55a192dbefb1fbb6b612f0
IntegrateBeamCr...   INFO ========== Integrating luminosity normalization: START ==========
IntegrateBeamCr...   INFO run: [114753] RandomFrequencyBB 700 CollidingBunches 1032
IntegrateBeamCr...   INFO Luminosity scale used: 1.65e-11 relative uncertainty 0.0116
IntegrateBeamCr...   INFO Integrated luminosity: 6.81185e-05 +/- 7.90174e-07 [pb-1]
IntegrateBeamCr...   INFO ========== Integrating luminosity normalization: END ==========
ApplicationMgr       INFO Application Manager Stopped successfully
EventLoopMgr         INFO Histograms converted successfully according to request.
ToolSvc              INFO Removing all tools created by ToolSvc
CounterSummarySvc    INFO filling counters...
CounterSummarySvc    INFO counters filled OK
CounterSummarySvc    INFO Wrote xml file summary.xml
ApplicationMgr       INFO Application Manager Finalized successfully
ApplicationMgr       INFO Application Manager Terminated successfully
