ApplicationMgr    SUCCESS
====================================================================================================================================
====================================================================================================================================
ApplicationMgr       INFO Application Manager Configured successfully
DetectorPersist...   INFO Added successfully Conversion service:XmlCnvSvc
DetectorDataSvc   SUCCESS Detector description database: git:/lhcb.xml
LumiSeq              INFO Member list: GaudiSequencer/writeLumiSeq
RndmGenSvc.Engine    INFO Generator engine type:CLHEP::RanluxEngine
RndmGenSvc.Engine    INFO Current Seed:1234567 Luxury:3
RndmGenSvc           INFO Using Random engine:HepRndm::Engine<CLHEP::RanluxEngine>
writeLumiSeq         INFO Member list: LoKi::ODINFilter/OdinTriggerTypes, HltLumiSummaryDecoder, GaudiSequencer/filterLumi, bankKiller/KillAll, FileIdBankWriter, LHCb::MDFWriter/MDFWriter
filterLumi           INFO OR Member list: FilterOnLumiSummary/LumiRandomFilter
KillAll           SUCCESS bankKiller : all banks of type 'ODIN' will be kept.
KillAll           SUCCESS bankKiller : all banks of type 'HltLumiSummary' will be kept.
KillAll           SUCCESS bankKiller : all banks of type 'HltRoutingBits' will be kept.
KillAll           SUCCESS bankKiller : all banks of type 'DAQ' will be kept.
ApplicationMgr       INFO Application Manager Initialized successfully
ApplicationMgr       INFO Application Manager Started successfully
EventSelector.D...   INFO Compression:0 Checksum:1
EventSelector     SUCCESS Reading Event record 1. Record number within stream 1: 1
EventPersistenc...   INFO Added successfully Conversion service:RootCnvSvc
EventPersistenc...   INFO Added successfully Conversion service:LHCb::RawDataCnvSvc
FileIdBankWriter     INFO RunInfo record: 00000000-0000-0000-0000-000000000000
ApplicationMgr       INFO Application Manager Stopped successfully
HltLumiSummaryD...   INFO Average event size :    11.0 words
FileIdBankWriter     INFO number of files seen: 1
EventLoopMgr         INFO Histograms converted successfully according to request.
ToolSvc              INFO Removing all tools created by ToolSvc
ApplicationMgr       INFO Application Manager Finalized successfully
ApplicationMgr       INFO Application Manager Terminated successfully
FileIdBankWriter     INFO Number of counters : 1
 |    Counter                                      |     #     |    sum     | mean/eff^* | rms/err^*  |     min     |     max     |
 | "number of files seen"                          |         1 |
OdinTriggerTypes     INFO Number of counters : 1
 |    Counter                                      |     #     |    sum     | mean/eff^* | rms/err^*  |     min     |     max     |
 |*"#passed"                                       |      1000 |        204 |( 20.40000 +- 1.274300)% |
ToolSvc.HltFactory   INFO Number of counters : 1
 |    Counter                                      |     #     |    sum     | mean/eff^* | rms/err^*  |     min     |     max     |
 | "# loaded from PYTHON"                          |         1 |
